Lab1/simulation/qsim/LogicalStep_Lab1.msim.vcd
$comment
	File created using the following command:
		vcd file LogicalStep_Lab1.msim.vcd -direction
$end
$date
	Thu Jun 10 05:43:54 2021
$end
$version
	ModelSim Version 10.5b
$end
$timescale
	1ps
$end

$scope module logicalstep_lab1_top_vhd_vec_tst $end
$var wire 1 ! leds [7] $end
$var wire 1 " leds [6] $end
$var wire 1 # leds [5] $end
$var wire 1 $ leds [4] $end
$var wire 1 % leds [3] $end
$var wire 1 & leds [2] $end
$var wire 1 ' leds [1] $end
$var wire 1 ( leds [0] $end
$var wire 1 ) PB [1] $end
$var wire 1 * PB [0] $end
$var wire 1 + sw [1] $end

$scope module i1 $end
$var wire 1 , gnd $end
$var wire 1 - vcc $end
$var wire 1 . unknown $end
$var wire 1 / devoe $end
$var wire 1 0 devclrn $end
$var wire 1 1 devpor $end
$var wire 1 2 ww_devoe $end
$var wire 1 3 ww_devclrn $end
$var wire 1 4 ww_devpor $end
$var wire 1 5 ww_leds [7] $end
$var wire 1 6 ww_leds [6] $end
$var wire 1 7 ww_leds [5] $end
$var wire 1 8 ww_leds [4] $end
$var wire 1 9 ww_leds [3] $end
$var wire 1 : ww_leds [2] $end
$var wire 1 ; ww_leds [1] $end
$var wire 1 < ww_leds [0] $end
$var wire 1 = ww_PB [1] $end
$var wire 1 > ww_PB [0] $end
$var wire 1 ? ww_sw [1] $end
$var wire 1 @ \sw[1]~input_o\ $end
$var wire 1 A \leds[7]~output_o\ $end
$var wire 1 B \leds[6]~output_o\ $end
$var wire 1 C \leds[5]~output_o\ $end
$var wire 1 D \leds[4]~output_o\ $end
$var wire 1 E \leds[3]~output_o\ $end
$var wire 1 F \leds[2]~output_o\ $end
$var wire 1 G \leds[1]~output_o\ $end
$var wire 1 H \leds[0]~output_o\ $end
$var wire 1 I \PB[1]~input_o\ $end
$var wire 1 J \PB[0]~input_o\ $end
$var wire 1 K \inst2|XOR_OUT~combout\ $end
$var wire 1 L \inst2|OR_OUT~combout\ $end
$var wire 1 M \inst2|NAND_OUT~0_combout\ $end
$var wire 1 N \inst2|ALT_INV_NAND_OUT~0_combout\ $end
$upscope $end
$upscope $end
$enddefinitions $end
#0
$dumpvars
0,
1-
x.
1/
10
11
12
13
14
0@
0A
0B
1C
0D
0E
0F
1G
0H
0I
0J
0K
0L
0M
1N
0)
0*
0+
05
06
17
08
09
0:
1;
0<
0=
0>
0?
0!
0"
1#
0$
0%
0&
1'
0(
$end
#250000
1*
1>
1J
1K
1L
1B
1F
1A
1E
16
1:
15
19
1&
1%
1"
1!
#500000
0*
1)
0>
1=
1I
0J
#750000
1*
1>
1J
0K
1M
0N
1D
1H
0A
0E
0C
0G
18
1<
05
09
07
0;
1(
0%
1$
0!
0'
0#
#1000000
0*
0)
1+
0>
0=
1?
1@
0I
0J
0L
0M
1N
0D
0H
0B
0F
1C
1G
08
0<
06
0:
17
1;
0(
0&
0$
0"
1'
1#
#1250000
1*
1>
1J
1K
1L
1B
1F
1A
1E
16
1:
15
19
1&
1%
1"
1!
#1500000
0*
1)
0>
1=
1I
0J
#1750000
1*
1>
1J
0K
1M
0N
1D
1H
0A
0E
0C
0G
18
1<
05
09
07
0;
1(
0%
1$
0!
0'
0#
